{
  "protocol_version" : "0.0.5",
  "configuration" : {
    "version" : "(6.6.0.166) (2019-08/d9001b5ae70)",
    "tlc" : "normal",
    "sigsgev" : "altstack",
    "notifications" : "kqueue",
    "architecture" : "amd64",
    "disabled_features" : "none",
    "smallconfig" : "disabled",
    "bigarrays" : "disabled",
    "softdebug" : "enabled",
    "interpreter" : "enabled",
    "llvm_support" : "0",
    "suspend" : "hybrid"
  },
  "memory" : {
    "Resident Size" : "124895232",
    "Virtual Size" : "4662472704",
    "minor_gc_time" : "1666786",
    "major_gc_time" : "0",
    "minor_gc_count" : "2",
    "major_gc_count" : "0",
    "major_gc_time_concurrent" : "0"
 },
  "threads" : [
 {
    "is_managed" : true,
    "offset_free_hash" : "0x115869ea88",
    "offset_rich_hash" : "0x115869ee42",
    "crashed" : true,
    "native_thread_id" : "0x70001022e000",
    "thread_info_addr" : "0x7f9a1c94c400",
    "thread_name" : "Thread Pool Worker",
    "ctx" : {
      "IP" : "0x7fff6f57d33a",
      "SP" : "0x70001022c5e8",
      "BP" : "0x70001022c610"
  },
    "managed_frames" : [
  {
      "is_managed" : "false",
      "native_address" : "unregistered"
   }
,
  {
      "is_managed" : "true",
      "guid" : "04DC7BAA-E88C-476E-A5BF-B7668D57F21C",
      "token" : "0x00000",
      "native_offset" : "0x0",
      "filename" : "mscorlib.dll",
      "sizeofimage" : "0x472000",
      "timestamp" : "0xc719f288",
      "il_offset" : "0x0000c"
   }
,
  {
      "is_managed" : "true",
      "guid" : "04DC7BAA-E88C-476E-A5BF-B7668D57F21C",
      "token" : "0x6001f80",
      "native_offset" : "0x0",
      "filename" : "mscorlib.dll",
      "sizeofimage" : "0x472000",
      "timestamp" : "0xc719f288",
      "il_offset" : "0x0001a"
   }
,
  {
      "is_managed" : "true",
      "guid" : "04DC7BAA-E88C-476E-A5BF-B7668D57F21C",
      "token" : "0x6001f27",
      "native_offset" : "0x0",
      "filename" : "mscorlib.dll",
      "sizeofimage" : "0x472000",
      "timestamp" : "0xc719f288",
      "il_offset" : "0x00028"
   }
,
  {
      "is_managed" : "true",
      "guid" : "04DC7BAA-E88C-476E-A5BF-B7668D57F21C",
      "token" : "0x6001f25",
      "native_offset" : "0x0",
      "filename" : "mscorlib.dll",
      "sizeofimage" : "0x472000",
      "timestamp" : "0xc719f288",
      "il_offset" : "0x00002"
   }
,
  {
      "is_managed" : "true",
      "guid" : "3342877D-CA78-45FD-9FAB-BE1ED45CC94F",
      "token" : "0x6000084",
      "native_offset" : "0x0",
      "filename" : "MonoDevelop.MSBuildBuilder.exe",
      "sizeofimage" : "0x14000",
      "timestamp" : "0xce43a7ab",
      "il_offset" : "0x000ae"
   }
,
  {
      "is_managed" : "true",
      "guid" : "3342877D-CA78-45FD-9FAB-BE1ED45CC94F",
      "token" : "0x6000083",
      "native_offset" : "0x0",
      "filename" : "MonoDevelop.MSBuildBuilder.exe",
      "sizeofimage" : "0x14000",
      "timestamp" : "0xce43a7ab",
      "il_offset" : "0x00001"
   }
,
  {
      "is_managed" : "true",
      "guid" : "3342877D-CA78-45FD-9FAB-BE1ED45CC94F",
      "token" : "0x600006a",
      "native_offset" : "0x0",
      "filename" : "MonoDevelop.MSBuildBuilder.exe",
      "sizeofimage" : "0x14000",
      "timestamp" : "0xce43a7ab",
      "il_offset" : "0x00048"
   }
,
  {
      "is_managed" : "true",
      "guid" : "3342877D-CA78-45FD-9FAB-BE1ED45CC94F",
      "token" : "0x60000a1",
      "native_offset" : "0x0",
      "filename" : "MonoDevelop.MSBuildBuilder.exe",
      "sizeofimage" : "0x14000",
      "timestamp" : "0xce43a7ab",
      "il_offset" : "0x00001"
   }
,
  {
      "is_managed" : "true",
      "guid" : "3342877D-CA78-45FD-9FAB-BE1ED45CC94F",
      "token" : "0x6000067",
      "native_offset" : "0x0",
      "filename" : "MonoDevelop.MSBuildBuilder.exe",
      "sizeofimage" : "0x14000",
      "timestamp" : "0xce43a7ab",
      "il_offset" : "0x00001"
   }
,
  {
      "is_managed" : "true",
      "guid" : "3342877D-CA78-45FD-9FAB-BE1ED45CC94F",
      "token" : "0x6000075",
      "native_offset" : "0x0",
      "filename" : "MonoDevelop.MSBuildBuilder.exe",
      "sizeofimage" : "0x14000",
      "timestamp" : "0xce43a7ab",
      "il_offset" : "0x00057"
   }
,
  {
      "is_managed" : "true",
      "guid" : "3342877D-CA78-45FD-9FAB-BE1ED45CC94F",
      "token" : "0x00000",
      "native_offset" : "0x0",
      "filename" : "MonoDevelop.MSBuildBuilder.exe",
      "sizeofimage" : "0x14000",
      "timestamp" : "0xce43a7ab",
      "il_offset" : "0x0002a"
   }
,
  {
      "is_managed" : "false",
      "native_address" : "unregistered"
   }
,
  {
      "is_managed" : "true",
      "guid" : "04DC7BAA-E88C-476E-A5BF-B7668D57F21C",
      "token" : "0x00000",
      "native_offset" : "0x0",
      "filename" : "mscorlib.dll",
      "sizeofimage" : "0x472000",
      "timestamp" : "0xc719f288",
      "il_offset" : "0x0000c"
   }
,
  {
      "is_managed" : "true",
      "guid" : "04DC7BAA-E88C-476E-A5BF-B7668D57F21C",
      "token" : "0x6004cdb",
      "native_offset" : "0x0",
      "filename" : "mscorlib.dll",
      "sizeofimage" : "0x472000",
      "timestamp" : "0xc719f288",
      "il_offset" : "0x0006a"
   }
,
  {
      "is_managed" : "true",
      "guid" : "04DC7BAA-E88C-476E-A5BF-B7668D57F21C",
      "token" : "0x60048c4",
      "native_offset" : "0x0",
      "filename" : "mscorlib.dll",
      "sizeofimage" : "0x472000",
      "timestamp" : "0xc719f288",
      "il_offset" : "0x00000"
   }
,
  {
      "is_managed" : "true",
      "guid" : "3342877D-CA78-45FD-9FAB-BE1ED45CC94F",
      "token" : "0x6000039",
      "native_offset" : "0x0",
      "filename" : "MonoDevelop.MSBuildBuilder.exe",
      "sizeofimage" : "0x14000",
      "timestamp" : "0xce43a7ab",
      "il_offset" : "0x00019"
   }
,
  {
      "is_managed" : "true",
      "guid" : "3342877D-CA78-45FD-9FAB-BE1ED45CC94F",
      "token" : "0x6000166",
      "native_offset" : "0x0",
      "filename" : "MonoDevelop.MSBuildBuilder.exe",
      "sizeofimage" : "0x14000",
      "timestamp" : "0xce43a7ab",
      "il_offset" : "0x00029"
   }
,
  {
      "is_managed" : "true",
      "guid" : "3342877D-CA78-45FD-9FAB-BE1ED45CC94F",
      "token" : "0x6000181",
      "native_offset" : "0x0",
      "filename" : "MonoDevelop.MSBuildBuilder.exe",
      "sizeofimage" : "0x14000",
      "timestamp" : "0xce43a7ab",
      "il_offset" : "0x00001"
   }
,
  {
      "is_managed" : "true",
      "guid" : "04DC7BAA-E88C-476E-A5BF-B7668D57F21C",
      "token" : "0x6001fe8",
      "native_offset" : "0x0",
      "filename" : "mscorlib.dll",
      "sizeofimage" : "0x472000",
      "timestamp" : "0xc719f288",
      "il_offset" : "0x00007"
   }
,
  {
      "is_managed" : "true",
      "guid" : "04DC7BAA-E88C-476E-A5BF-B7668D57F21C",
      "token" : "0x6001ec3",
      "native_offset" : "0x0",
      "filename" : "mscorlib.dll",
      "sizeofimage" : "0x472000",
      "timestamp" : "0xc719f288",
      "il_offset" : "0x00071"
   }
,
  {
      "is_managed" : "true",
      "guid" : "04DC7BAA-E88C-476E-A5BF-B7668D57F21C",
      "token" : "0x6001ec1",
      "native_offset" : "0x0",
      "filename" : "mscorlib.dll",
      "sizeofimage" : "0x472000",
      "timestamp" : "0xc719f288",
      "il_offset" : "0x00000"
   }
,
  {
      "is_managed" : "true",
      "guid" : "04DC7BAA-E88C-476E-A5BF-B7668D57F21C",
      "token" : "0x6001fe6",
      "native_offset" : "0x0",
      "filename" : "mscorlib.dll",
      "sizeofimage" : "0x472000",
      "timestamp" : "0xc719f288",
      "il_offset" : "0x00021"
   }
,
  {
      "is_managed" : "true",
      "guid" : "04DC7BAA-E88C-476E-A5BF-B7668D57F21C",
      "token" : "0x6001fce",
      "native_offset" : "0x0",
      "filename" : "mscorlib.dll",
      "sizeofimage" : "0x472000",
      "timestamp" : "0xc719f288",
      "il_offset" : "0x00074"
   }
,
  {
      "is_managed" : "true",
      "guid" : "04DC7BAA-E88C-476E-A5BF-B7668D57F21C",
      "token" : "0x6001fe3",
      "native_offset" : "0x0",
      "filename" : "mscorlib.dll",
      "sizeofimage" : "0x472000",
      "timestamp" : "0xc719f288",
      "il_offset" : "0x00000"
   }
,
  {
      "is_managed" : "true",
      "guid" : "04DC7BAA-E88C-476E-A5BF-B7668D57F21C",
      "token" : "0x00000",
      "native_offset" : "0x0",
      "filename" : "mscorlib.dll",
      "sizeofimage" : "0x472000",
      "timestamp" : "0xc719f288",
      "il_offset" : "0x0002a"
   }

  ],
  "unmanaged_frames" : [
 {
    "is_managed" : "false",
    "native_address" : "0x1062ee0c6",
    "native_offset" : "0x00000"
  }
,
 {
    "is_managed" : "false",
    "native_address" : "0x106494775",
    "native_offset" : "0x00000"
  }
,
 {
    "is_managed" : "false",
    "native_address" : "0x106494dfa",
    "native_offset" : "0x00000"
  }
,
 {
    "is_managed" : "false",
    "native_address" : "0x106359f16",
    "native_offset" : "0x00000"
  }
,
 {
    "is_managed" : "false",
    "native_address" : "0x1062f2bd5",
    "native_offset" : "0x00000"
  }
,
 {
    "is_managed" : "false",
    "native_address" : "0x1063592ab",
    "native_offset" : "0x00000"
  }
,
 {
    "is_managed" : "false",
    "native_address" : "0x7fff6f62e5fd",
    "native_offset" : "0x00000"
  }
,
 {
    "is_managed" : "false",
    "native_address" : "unregistered"
  }
,
 {
    "is_managed" : "false",
    "native_address" : "0x7fff6f504808",
    "native_offset" : "0x00000"
  }
,
 {
    "is_managed" : "false",
    "native_address" : "0x106563cb7",
    "native_offset" : "0x00000"
  }
,
 {
    "is_managed" : "false",
    "native_address" : "0x106544b2f",
    "native_offset" : "0x00000"
  }
,
 {
    "is_managed" : "false",
    "native_address" : "0x10656403e",
    "native_offset" : "0x00000"
  }
,
 {
    "is_managed" : "false",
    "native_address" : "0x1065641bf",
    "native_offset" : "0x00000"
  }
,
 {
    "is_managed" : "false",
    "native_address" : "0x1063fee36",
    "native_offset" : "0x00000"
  }
,
 {
    "is_managed" : "false",
    "native_address" : "0x1063ff438",
    "native_offset" : "0x00000"
  }
,
 {
    "is_managed" : "false",
    "native_address" : "0x10655219f",
    "native_offset" : "0x00000"
  }
,
 {
    "is_managed" : "false",
    "native_address" : "0x1065524b0",
    "native_offset" : "0x00000"
  }
,
 {
    "is_managed" : "false",
    "native_address" : "0x10640176b",
    "native_offset" : "0x00000"
  }
,
 {
    "is_managed" : "false",
    "native_address" : "0x106424635",
    "native_offset" : "0x00000"
  }
,
 {
    "is_managed" : "true",
    "guid" : "04DC7BAA-E88C-476E-A5BF-B7668D57F21C",
    "token" : "0x00000",
    "native_offset" : "0x0",
    "filename" : "mscorlib.dll",
    "sizeofimage" : "0x472000",
    "timestamp" : "0xc719f288",
    "il_offset" : "0x00000"
  }
,
 {
    "is_managed" : "true",
    "guid" : "3342877D-CA78-45FD-9FAB-BE1ED45CC94F",
    "token" : "0x6000083",
    "native_offset" : "0x0",
    "filename" : "MonoDevelop.MSBuildBuilder.exe",
    "sizeofimage" : "0x14000",
    "timestamp" : "0xce43a7ab",
    "il_offset" : "0x00000"
  }
,
 {
    "is_managed" : "true",
    "guid" : "3342877D-CA78-45FD-9FAB-BE1ED45CC94F",
    "token" : "0x60000a1",
    "native_offset" : "0x0",
    "filename" : "MonoDevelop.MSBuildBuilder.exe",
    "sizeofimage" : "0x14000",
    "timestamp" : "0xce43a7ab",
    "il_offset" : "0x00000"
  }
,
 {
    "is_managed" : "true",
    "guid" : "3342877D-CA78-45FD-9FAB-BE1ED45CC94F",
    "token" : "0x00000",
    "native_offset" : "0x0",
    "filename" : "MonoDevelop.MSBuildBuilder.exe",
    "sizeofimage" : "0x14000",
    "timestamp" : "0xce43a7ab",
    "il_offset" : "0x00000"
  }
,
 {
    "is_managed" : "false",
    "native_address" : "0x10624e59d",
    "native_offset" : "0x00000"
  }
,
 {
    "is_managed" : "false",
    "native_address" : "0x10646dfa4",
    "native_offset" : "0x00000"
  }
,
 {
    "is_managed" : "false",
    "native_address" : "0x1064723a6",
    "native_offset" : "0x00000"
  }
,
 {
    "is_managed" : "false",
    "native_address" : "0x1064096b4",
    "native_offset" : "0x00000"
  }
,
 {
    "is_managed" : "true",
    "guid" : "04DC7BAA-E88C-476E-A5BF-B7668D57F21C",
    "token" : "0x00000",
    "native_offset" : "0x0",
    "filename" : "mscorlib.dll",
    "sizeofimage" : "0x472000",
    "timestamp" : "0xc719f288",
    "il_offset" : "0x00000"
  }
,
 {
    "is_managed" : "true",
    "guid" : "04DC7BAA-E88C-476E-A5BF-B7668D57F21C",
    "token" : "0x60048c4",
    "native_offset" : "0x0",
    "filename" : "mscorlib.dll",
    "sizeofimage" : "0x472000",
    "timestamp" : "0xc719f288",
    "il_offset" : "0x00000"
  }
,
 {
    "is_managed" : "true",
    "guid" : "3342877D-CA78-45FD-9FAB-BE1ED45CC94F",
    "token" : "0x6000181",
    "native_offset" : "0x0",
    "filename" : "MonoDevelop.MSBuildBuilder.exe",
    "sizeofimage" : "0x14000",
    "timestamp" : "0xce43a7ab",
    "il_offset" : "0x00000"
  }
,
 {
    "is_managed" : "true",
    "guid" : "04DC7BAA-E88C-476E-A5BF-B7668D57F21C",
    "token" : "0x6001ec1",
    "native_offset" : "0x0",
    "filename" : "mscorlib.dll",
    "sizeofimage" : "0x472000",
    "timestamp" : "0xc719f288",
    "il_offset" : "0x00000"
  }
,
 {
    "is_managed" : "true",
    "guid" : "04DC7BAA-E88C-476E-A5BF-B7668D57F21C",
    "token" : "0x6001fe3",
    "native_offset" : "0x0",
    "filename" : "mscorlib.dll",
    "sizeofimage" : "0x472000",
    "timestamp" : "0xc719f288",
    "il_offset" : "0x00000"
  }
,
 {
    "is_managed" : "false",
    "native_address" : "0x10624e59d",
    "native_offset" : "0x00000"
  }
,
 {
    "is_managed" : "false",
    "native_address" : "0x10646dfa4",
    "native_offset" : "0x00000"
  }
,
 {
    "is_managed" : "false",
    "native_address" : "0x106497ec0",
    "native_offset" : "0x00000"
  }
,
 {
    "is_managed" : "false",
    "native_address" : "0x1063ca24c",
    "native_offset" : "0x00000"
  }
,
 {
    "is_managed" : "false",
    "native_address" : "0x106495373",
    "native_offset" : "0x00000"
  }
,
 {
    "is_managed" : "false",
    "native_address" : "0x7fff6f63a109",
    "native_offset" : "0x00000"
  }
,
 {
    "is_managed" : "false",
    "native_address" : "0x7fff6f635b8b",
    "native_offset" : "0x00000"
  }

 ]
},
{
  "is_managed" : false,
  "offset_free_hash" : "0x0",
  "offset_rich_hash" : "0x0",
  "crashed" : false,
  "native_thread_id" : "0x107e25dc0",
  "thread_info_addr" : "0x7f9a1a808c00",
  "thread_name" : "tid_307",
  "ctx" : {
    "IP" : "0x7fff6f579882",
    "SP" : "0x7ffee99c4cf8",
    "BP" : "0x7ffee99c4d90"
 },
  "unmanaged_frames" : [
 {
    "is_managed" : "false",
    "native_address" : "0x1062ee0c6",
    "native_offset" : "0x00000"
  }
,
 {
    "is_managed" : "false",
    "native_address" : "0x106494775",
    "native_offset" : "0x00000"
  }
,
 {
    "is_managed" : "false",
    "native_address" : "0x1064944a7",
    "native_offset" : "0x00000"
  }
,
 {
    "is_managed" : "false",
    "native_address" : "0x106358f0c",
    "native_offset" : "0x00000"
  }
,
 {
    "is_managed" : "false",
    "native_address" : "0x7fff6f62e5fd",
    "native_offset" : "0x00000"
  }
,
 {
    "is_managed" : "false",
    "native_address" : "0x7ffee99c49e8",
    "native_offset" : "0x00000"
  }
,
 {
    "is_managed" : "false",
    "native_address" : "0x10653e7c0",
    "native_offset" : "0x00000"
  }
,
 {
    "is_managed" : "false",
    "native_address" : "0x1065592e1",
    "native_offset" : "0x00000"
  }
,
 {
    "is_managed" : "false",
    "native_address" : "0x106491774",
    "native_offset" : "0x00000"
  }
,
 {
    "is_managed" : "false",
    "native_address" : "0x10649158a",
    "native_offset" : "0x00000"
  }
,
 {
    "is_managed" : "false",
    "native_address" : "0x1062b3632",
    "native_offset" : "0x00000"
  }
,
 {
    "is_managed" : "false",
    "native_address" : "0x10623d7c8",
    "native_offset" : "0x00000"
  }
,
 {
    "is_managed" : "false",
    "native_address" : "0x7fff6f435cc9",
    "native_offset" : "0x00000"
  }

 ]
},
{
  "is_managed" : false,
  "offset_free_hash" : "0x0",
  "offset_rich_hash" : "0x0",
  "crashed" : false,
  "native_thread_id" : "0x70000fb1f000",
  "thread_info_addr" : "0x7f9a1a83aa00",
  "thread_name" : "Finalizer",
  "ctx" : {
    "IP" : "0x7fff6f576e36",
    "SP" : "0x70000fb1ee48",
    "BP" : "0x70000fb1eef0"
 },
  "unmanaged_frames" : [
 {
    "is_managed" : "false",
    "native_address" : "0x1062ee0c6",
    "native_offset" : "0x00000"
  }
,
 {
    "is_managed" : "false",
    "native_address" : "0x106494775",
    "native_offset" : "0x00000"
  }
,
 {
    "is_managed" : "false",
    "native_address" : "0x1064944a7",
    "native_offset" : "0x00000"
  }
,
 {
    "is_managed" : "false",
    "native_address" : "0x106358f0c",
    "native_offset" : "0x00000"
  }
,
 {
    "is_managed" : "false",
    "native_address" : "0x7fff6f62e5fd",
    "native_offset" : "0x00000"
  }
,
 {
    "is_managed" : "false",
    "native_address" : "0x370000003702",
    "native_offset" : "0x00000"
  }
,
 {
    "is_managed" : "false",
    "native_address" : "0x106495373",
    "native_offset" : "0x00000"
  }
,
 {
    "is_managed" : "false",
    "native_address" : "0x7fff6f63a109",
    "native_offset" : "0x00000"
  }
,
 {
    "is_managed" : "false",
    "native_address" : "0x7fff6f635b8b",
    "native_offset" : "0x00000"
  }

 ]
}
]
}